pglmm example with empirical data • phyr
…
head(oldfield$data, 40)
#> # A tibble: 40 × 7
#>    site_orig habitat_type sp            abundance disturbance site          pres
#>        <int> <chr>        <chr>             <int>       <dbl> <chr>        <int>
#>  1         1 undisturbed  Daucus_carota         0           0 1_undisturb…     0
#>  2         6 undisturbed  Daucus_carota         0           0 6_undisturb…     0
#>  3         7 undisturbed  Daucus_carota         0           0 7_undisturb…     0
#>  4         9 undisturbed  Daucus_carota         0           0 9_undisturb…     0
#>  5        10 undisturbed  Daucus_carota         0           0 10_undistur…     0
#>  6        11 undisturbed  Daucus_carota         0           0 11_undistur…     0
#>  7        13 undisturbed  Daucus_carota         1           0 13_undistur…     1
#>  8        15 undisturbed  Daucus_carota         0           0 15_undistur…     0
#>  9        16 undisturbed  Daucus_carota         0           0 16_undistur…     0
#> 10        18 undisturbed  Daucus_carota         0           0 18_undistur…     0
#> # … with 30 more rows
…
